$ 3 0.000005 1.8479586061009856 37 5 50
R 672 336 592 336 0 0 40 4.95 0 0 0.5
r 672 336 752 336 0 20000
r 784 272 944 272 0 20000
w 784 272 784 336 0
a 784 352 944 352 8 15 -15 1000000 1.839398247010598 1.8393855349755384 100000
w 944 272 944 352 0
O 944 352 1040 352 1
r 784 368 672 368 0 2200
368 784 272 736 208 0 0
368 672 368 672 464 0 0
r 672 336 672 256 0 10000
g 672 256 640 224 0
w 752 336 784 336 0
w 528 352 464 240 0
R 656 608 656 544 0 1 60 5 0 0 0.5
O 424 360 472 360 0
w -240 672 -240 704 0
w -240 704 -176 704 0
c -240 704 -240 768 0 7.4e-8 3.442610073563792
g -240 768 -240 784 0
r -240 672 -240 544 0 1000000
w -240 544 -112 544 0
R -240 544 -272 544 0 0 40 10 0 0 0.5
165 -176 576 -160 576 2 0.00034422658469790944
w -112 544 -48 544 0
w -48 544 -48 608 0
w 0 640 -48 640 0
w 0 640 0 512 0
r 0 512 -192 512 0 10000
w -192 512 -192 672 0
w -240 672 -192 672 0
w -192 672 -176 672 0
155 88 552 96 552 1 0
155 152 552 160 552 1 0
155 216 552 224 552 1 0
155 280 552 288 552 1 0
155 344 552 352 552 1 0
155 408 552 424 552 1 5
155 472 552 488 552 1 5
155 536 552 552 552 1 5
w 136 552 152 552 0
w 200 552 216 552 0
w 264 552 280 552 0
w 328 552 344 552 0
w 392 552 408 552 0
w 456 552 472 552 0
w 520 552 536 552 0
w 584 584 584 608 0
w 584 608 72 608 0
w 72 608 72 552 0
w 72 552 88 552 0
w 88 568 80 568 0
w 80 568 80 632 0
w 152 568 144 568 0
w 144 568 144 632 0
w 216 568 208 568 0
w 208 568 208 632 0
w 280 568 272 568 0
w 272 568 272 632 0
w 344 568 336 568 0
w 336 568 336 632 0
w 408 568 400 568 0
w 400 568 400 632 0
w 472 568 464 568 0
w 464 568 464 632 0
w 536 568 528 568 0
w 528 568 528 632 0
w 528 632 464 632 0
w 464 632 400 632 0
w 400 632 336 632 0
w 336 632 272 632 0
w 272 632 208 632 0
w 208 632 144 632 0
w 144 632 80 632 0
r 136 552 136 424 0 57600
r 200 552 200 424 0 30900
r 264 552 264 424 0 23700
r 328 552 328 424 0 22100
r 392 552 392 424 0 23700
r 456 552 456 424 0 30900
r 520 552 520 424 0 57600
w 136 424 200 424 0
w 200 424 264 424 0
w 264 424 328 424 0
w 328 424 392 424 0
w 392 424 456 424 0
w 456 424 520 424 0
w 520 424 560 424 0
c 560 424 560 504 0 3e-7 1.8393855349755268
g 560 504 560 512 0
w 560 424 672 368 0
w 0 640 80 632 0
x 152 302 566 305 4 24 Custom\sbuilt\sDC\sto\ssine\s(AC)\swave
x 699 427 956 430 4 24 TOP:\sDC\sto\sAC\soutput
x 612 646 1005 649 4 24 BOTTOM:\sstandard\sAC\ssine\swave
o 9 64 0 12810 4.78915152327717 0.0001 0 2 9 3
o 6 64 0 12554 4.628210482343703 0.0001 1 1
o 14 64 0 4099 5 0.00009765625 1 2 14 3
o 2 64 0 4099 5 0.000390625 0 2 2 3
o 34 64 0 4098 5 0.00009765625 0 1
38 0 0 0 15 Voltage
38 18 0 4e-8 8e-8 Capacitance
38 22 0 1 10 Voltage
